<?xml version="1.0" encoding="UTF-8" standalone="no"?>
<!DOCTYPE svg PUBLIC "-//W3C//DTD SVG 1.1//EN" "http://www.w3.org/Graphics/SVG/1.1/DTD/svg11.dtd">
<svg width="100%" height="100%" viewBox="0 0 21 21" version="1.1" xmlns="http://www.w3.org/2000/svg" xmlns:xlink="http://www.w3.org/1999/xlink" xml:space="preserve" xmlns:serif="http://www.serif.com/" style="fill-rule:evenodd;clip-rule:evenodd;stroke-linejoin:round;stroke-miterlimit:2;">
    <g transform="matrix(0.420792,0,0,0.531527,-2043.08,39.502)">
        <g id="Traducir">
            <rect x="4855.33" y="-74.318" width="49.906" height="39.509" style="fill:none;"/>
            <g>
                <clipPath id="_clip1">
                    <rect x="4855.33" y="-74.318" width="49.906" height="39.509"/>
                </clipPath>
                <g clip-path="url(#_clip1)">
                    <g transform="matrix(0.252694,0,0,0.720177,1898.45,-663.786)">
                        <rect x="11701.4" y="818.504" width="197.495" height="54.86" style="fill:rgb(67,67,59);"/>
                        <g transform="matrix(9.40454,0,0,2.61237,11723.5,868.454)">
                            <path d="M6,-8C6,-6.906 6.906,-6 8,-6C9.094,-6 10,-6.906 10,-8C10,-9.094 9.094,-10 8,-10C6.906,-10 6,-9.094 6,-8ZM5.344,-10C5.344,-10.375 5.031,-10.656 4.656,-10.656L3.406,-10.656C4.313,-12.25 6.031,-13.344 8,-13.344C10.313,-13.344 12.313,-11.844 13.031,-9.75C13.125,-9.5 13.375,-9.344 13.656,-9.344C14.094,-9.344 14.438,-9.781 14.281,-10.219C13.375,-12.813 10.906,-14.656 8,-14.656C5.813,-14.656 3.875,-13.625 2.656,-12L2.656,-12.656C2.656,-13.031 2.375,-13.344 2,-13.344C1.625,-13.344 1.344,-13.031 1.344,-12.656L1.344,-10C1.344,-9.625 1.625,-9.344 2,-9.344L4.656,-9.344C5.031,-9.344 5.344,-9.625 5.344,-10ZM10.656,-6C10.656,-5.625 10.969,-5.344 11.344,-5.344L12.594,-5.344C11.688,-3.75 9.969,-2.656 8,-2.656C5.688,-2.656 3.688,-4.156 2.969,-6.25C2.875,-6.5 2.625,-6.656 2.344,-6.656C1.906,-6.656 1.563,-6.219 1.719,-5.781C2.625,-3.188 5.094,-1.344 8,-1.344C10.188,-1.344 12.125,-2.375 13.344,-4L13.344,-3.344C13.344,-2.969 13.625,-2.656 14,-2.656C14.375,-2.656 14.656,-2.969 14.656,-3.344L14.656,-6C14.656,-6.375 14.375,-6.656 14,-6.656L11.344,-6.656C10.969,-6.656 10.656,-6.375 10.656,-6Z" style="fill:rgb(238,232,216);fill-rule:nonzero;"/>
                        </g>
                    </g>
                </g>
            </g>
        </g>
    </g>
</svg>
