<?xml version="1.0" encoding="UTF-8" standalone="no"?>
<svg
   width="100%"
   height="100%"
   viewBox="0 0 21 21"
   version="1.1"
   xml:space="preserve"
   style="fill-rule:evenodd;clip-rule:evenodd;stroke-linejoin:round;stroke-miterlimit:2;"
   id="svg1"
   sodipodi:docname="lock_open_white.svg"
   inkscape:version="1.4 (e7c3feb100, 2024-10-09)"
   xmlns:inkscape="http://www.inkscape.org/namespaces/inkscape"
   xmlns:sodipodi="http://sodipodi.sourceforge.net/DTD/sodipodi-0.dtd"
   xmlns="http://www.w3.org/2000/svg"
   xmlns:svg="http://www.w3.org/2000/svg"><defs
   id="defs1" /><sodipodi:namedview
   id="namedview1"
   pagecolor="#ffffff"
   bordercolor="#000000"
   borderopacity="0.25"
   inkscape:showpageshadow="2"
   inkscape:pageopacity="0.0"
   inkscape:pagecheckerboard="0"
   inkscape:deskcolor="#d1d1d1"
   inkscape:zoom="35.714286"
   inkscape:cx="10.514"
   inkscape:cy="10.5"
   inkscape:window-width="1648"
   inkscape:window-height="961"
   inkscape:window-x="0"
   inkscape:window-y="0"
   inkscape:window-maximized="1"
   inkscape:current-layer="svg1" />
    <g
   transform="matrix(0.134168,0,0,0.134168,1.16672,20.2343)"
   id="g1"
   style="fill:#ffffff;fill-opacity:1">
        <path
   d="M69.565,-63.858C63.315,-63.858 57.88,-58.423 57.88,-52.173C57.88,-45.923 63.315,-40.489 69.565,-40.489C75.814,-40.489 81.249,-45.923 81.249,-52.173C81.249,-58.423 75.814,-63.858 69.565,-63.858ZM104.347,-92.662L98.64,-92.662L98.64,-104.347C98.64,-120.379 85.597,-133.423 69.565,-133.423C56.249,-133.423 44.836,-124.455 41.576,-111.684C40.76,-108.423 42.663,-105.434 45.652,-104.618C48.641,-103.803 51.902,-105.434 52.717,-108.695C54.619,-116.303 61.684,-121.738 69.565,-121.738C79.075,-121.738 86.956,-113.858 86.956,-104.347L86.956,-92.662L34.782,-92.662C28.532,-92.662 23.098,-87.499 23.098,-81.249L23.098,-23.098C23.098,-16.848 28.532,-11.685 34.782,-11.685L104.347,-11.685C110.597,-11.685 116.031,-16.848 116.031,-23.098L116.031,-81.249C116.031,-87.499 110.597,-92.662 104.347,-92.662ZM104.347,-29.076C104.347,-25.815 101.629,-23.098 98.64,-23.098L40.489,-23.098C37.5,-23.098 34.782,-25.815 34.782,-29.076L34.782,-75.271C34.782,-78.532 37.5,-81.249 40.489,-81.249L98.64,-81.249C101.629,-81.249 104.347,-78.532 104.347,-75.271L104.347,-29.076Z"
   style="fill:#ffffff;fill-rule:nonzero;fill-opacity:1"
   id="path1" />
    </g>
</svg>
