<?xml version="1.0" encoding="UTF-8" standalone="no"?>
<!DOCTYPE svg PUBLIC "-//W3C//DTD SVG 1.1//EN" "http://www.w3.org/Graphics/SVG/1.1/DTD/svg11.dtd">
<svg width="100%" height="100%" viewBox="0 0 28 28" version="1.1" xmlns="http://www.w3.org/2000/svg" xmlns:xlink="http://www.w3.org/1999/xlink" xml:space="preserve" xmlns:serif="http://www.serif.com/" style="fill-rule:evenodd;clip-rule:evenodd;stroke-linejoin:round;stroke-miterlimit:2;">
    <g transform="matrix(0.75,0,0,0.75,-88.75,-458.489)">
        <rect x="123" y="615.985" width="28" height="28" style="fill:none;"/>
        <g transform="matrix(1.33333,0,0,1.33333,-46.1541,511.328)">
            <path d="M139.112,93L134.12,93L134.12,86.485C134.12,86.227 133.885,85.993 133.604,85.993C133.346,85.993 133.112,86.227 133.112,86.485L133.112,93C133.112,93.539 133.557,93.985 134.12,93.985L139.112,93.985C139.393,93.985 139.604,93.774 139.604,93.493C139.604,93.211 139.393,93 139.112,93ZM141.62,90.985L141.62,84.985C141.62,84.446 141.151,84 140.612,84L136.112,84C135.573,84 135.104,84.446 135.104,84.985L135.104,90.985C135.104,91.547 135.573,91.993 136.112,91.993L140.612,91.993C141.151,91.993 141.62,91.547 141.62,90.985ZM140.612,90.985L136.112,90.985L136.112,84.985L140.612,84.985L140.612,90.985Z" style="fill:rgb(238,232,216);fill-rule:nonzero;"/>
        </g>
    </g>
</svg>
