<?xml version="1.0" encoding="UTF-8" standalone="no"?>
<!DOCTYPE svg PUBLIC "-//W3C//DTD SVG 1.1//EN" "http://www.w3.org/Graphics/SVG/1.1/DTD/svg11.dtd">
<svg width="100%" height="100%" viewBox="0 0 56 56" version="1.1" xmlns="http://www.w3.org/2000/svg" xmlns:xlink="http://www.w3.org/1999/xlink" xml:space="preserve" xmlns:serif="http://www.serif.com/" style="fill-rule:evenodd;clip-rule:evenodd;stroke-linejoin:round;stroke-miterlimit:2;">
    <g id="Off" transform="matrix(0.999738,0,0,0.999738,-5331.57,-6191.48)">
        <g transform="matrix(1.00026,0,0,1.00026,5339.97,6200.1)">
            <path d="M37.645,21.43L37.651,21.001C37.651,11.805 30.196,4.349 21,4.349C11.803,4.349 4.349,11.805 4.349,21.001C4.349,30.196 11.803,37.651 21,37.651C30.052,37.651 37.418,30.427 37.645,21.43Z" style="fill:rgb(67,67,59);fill-rule:nonzero;"/>
        </g>
        <g transform="matrix(1.00327,0,0,1.00327,-3183.84,-4960.25)">
            <path d="M8516.95,11124C8528.5,11124 8537.89,11133.3 8537.89,11144.9C8537.89,11156.4 8528.5,11165.8 8516.95,11165.8C8505.39,11165.8 8496.01,11156.4 8496.01,11144.9C8496.01,11133.3 8505.39,11124 8516.95,11124ZM8516.95,11125.7C8527.54,11125.7 8536.14,11134.3 8536.14,11144.9C8536.14,11155.5 8527.54,11164.1 8516.95,11164.1C8506.36,11164.1 8497.76,11155.5 8497.76,11144.9C8497.76,11134.3 8506.36,11125.7 8516.95,11125.7Z" style="fill:rgb(67,67,59);"/>
        </g>
    </g>
    <g id="Notes" transform="matrix(0.749382,0,0,0.749382,-4023.49,-4745.19)">
        <g transform="matrix(1,0,0,1,5417.66,6369.21)">
            <path d="M0,-2.435C-0.768,-3.081 -1.941,-3.003 -2.608,-2.209L-3.009,-1.735L-0.17,0.646L0.212,0.174C0.869,-0.608 0.786,-1.776 0,-2.435" style="fill:rgb(238,232,216);fill-rule:nonzero;"/>
        </g>
        <g transform="matrix(1,0,0,1,5409.64,6377.62)">
            <path d="M0,-4.217L-0.212,-3.967C-0.395,-3.747 -0.527,-3.485 -0.594,-3.207L-1.167,-0.805C-1.222,-0.578 -1.143,-0.339 -0.964,-0.189C-0.789,-0.042 -0.543,0 -0.321,-0.095L1.945,-1.078C2.207,-1.192 2.442,-1.367 2.626,-1.585L2.838,-1.836L0,-4.217Z" style="fill:rgb(238,232,216);fill-rule:nonzero;"/>
        </g>
        <g transform="matrix(-0.645433,0.763817,0.763817,0.645433,5415.83,6373.92)">
            <rect x="-2.925" y="-5.062" width="5.275" height="3.704" style="fill:rgb(238,232,216);"/>
        </g>
        <g transform="matrix(1,0,0,1,5412.72,6360.03)">
            <path d="M0,1.676L-2.346,-0.553C-2.567,-0.763 -2.84,-0.887 -3.128,-0.967L-3.128,2.643L0.538,2.643C0.461,2.277 0.274,1.937 0,1.676" style="fill:rgb(238,232,216);fill-rule:nonzero;"/>
        </g>
        <g transform="matrix(1,0,0,1,5407.85,6364.9)">
            <path d="M0,9.227C0.11,8.765 0.33,8.328 0.635,7.963L5.443,2.273L5.443,-0.985L1.121,-0.985C0.779,-0.985 0.504,-1.261 0.504,-1.602L0.504,-5.924L-8.758,-5.924C-9.779,-5.924 -10.61,-5.093 -10.61,-4.072L-10.61,13.298C-10.61,14.32 -9.779,15.151 -8.758,15.151L3.591,15.151C4.612,15.151 5.443,14.32 5.443,13.298L5.443,11.839L5.363,11.934C5.06,12.295 4.668,12.586 4.232,12.776L1.964,13.76C1.324,14.036 0.585,13.938 0.037,13.479C-0.504,13.025 -0.738,12.317 -0.574,11.629L0,9.227ZM-7.522,-2.22L-1.349,-2.22C-1.008,-2.22 -0.731,-1.943 -0.731,-1.602C-0.731,-1.261 -1.008,-0.985 -1.349,-0.985L-7.522,-0.985C-7.864,-0.985 -8.141,-1.261 -8.141,-1.602C-8.141,-1.943 -7.864,-2.22 -7.522,-2.22M-7.522,1.526L2.355,1.526C2.697,1.526 2.974,1.802 2.974,2.144C2.974,2.485 2.697,2.761 2.355,2.761L-7.522,2.761C-7.864,2.761 -8.141,2.485 -8.141,2.144C-8.141,1.802 -7.864,1.526 -7.522,1.526M-2.584,10.17L-7.522,10.17C-7.864,10.17 -8.141,9.894 -8.141,9.553C-8.141,9.211 -7.864,8.935 -7.522,8.935L-2.584,8.935C-2.242,8.935 -1.966,9.211 -1.966,9.553C-1.966,9.894 -2.242,10.17 -2.584,10.17M-7.522,6.466C-7.864,6.466 -8.141,6.189 -8.141,5.848C-8.141,5.507 -7.864,5.231 -7.522,5.231L-0.114,5.231C0.228,5.231 0.504,5.507 0.504,5.848C0.504,6.189 0.228,6.466 -0.114,6.466L-7.522,6.466Z" style="fill:rgb(238,232,216);fill-rule:nonzero;"/>
        </g>
    </g>
</svg>
