<?xml version="1.0" encoding="UTF-8" standalone="no"?>
<!DOCTYPE svg PUBLIC "-//W3C//DTD SVG 1.1//EN" "http://www.w3.org/Graphics/SVG/1.1/DTD/svg11.dtd">
<svg width="100%" height="100%" viewBox="0 0 56 56" version="1.1" xmlns="http://www.w3.org/2000/svg" xmlns:xlink="http://www.w3.org/1999/xlink" xml:space="preserve" xmlns:serif="http://www.serif.com/" style="fill-rule:evenodd;clip-rule:evenodd;stroke-linejoin:round;stroke-miterlimit:2;">
    <g transform="matrix(1,0,0,1,-6427.59,-2145.74)">
        <rect x="6427.61" y="2145.76" width="55.971" height="55.971" style="fill:none;"/>
        <g transform="matrix(1,0,0,1,-0.000427244,-0.00279949)">
            <rect x="6427.61" y="2145.76" width="55.971" height="55.971" style="fill:none;"/>
            <clipPath id="_clip1">
                <rect x="6427.61" y="2145.76" width="55.971" height="55.971"/>
            </clipPath>
            <g clip-path="url(#_clip1)">
                <g transform="matrix(1.33264,0,0,1,5942.52,2075.74)">
                    <rect x="364" y="84" width="42" height="28" style="fill:rgb(242,138,173);"/>
                    <g transform="matrix(0.562791,0,0,0.75,83.3944,-1375.3)">
                        <path d="M527.771,1969.84L527.771,1958.75L535.259,1958.75L535.259,1960.85L530.267,1960.85L530.267,1963.02L534.699,1963.02L534.699,1965.07L530.267,1965.07L530.267,1967.74L535.627,1967.74L535.627,1969.84L527.771,1969.84Z" style="fill:rgb(67,67,59);fill-rule:nonzero;"/>
                        <path d="M540.499,1967.94C540.851,1967.94 541.142,1967.91 541.371,1967.85C541.601,1967.79 541.785,1967.71 541.923,1967.61C542.062,1967.51 542.158,1967.39 542.211,1967.25C542.265,1967.11 542.291,1966.96 542.291,1966.78C542.291,1966.42 542.121,1966.12 541.779,1965.88C541.438,1965.64 540.851,1965.38 540.019,1965.1C539.657,1964.98 539.294,1964.83 538.931,1964.66C538.569,1964.5 538.243,1964.29 537.955,1964.04C537.667,1963.79 537.433,1963.49 537.251,1963.13C537.07,1962.77 536.979,1962.34 536.979,1961.82C536.979,1961.31 537.075,1960.85 537.267,1960.44C537.459,1960.03 537.731,1959.68 538.083,1959.39C538.435,1959.1 538.862,1958.88 539.363,1958.73C539.865,1958.57 540.43,1958.5 541.059,1958.5C541.806,1958.5 542.451,1958.58 542.995,1958.74C543.539,1958.9 543.987,1959.07 544.339,1959.26L543.619,1961.23C543.31,1961.07 542.966,1960.93 542.587,1960.81C542.209,1960.69 541.753,1960.62 541.219,1960.62C540.622,1960.62 540.193,1960.71 539.931,1960.87C539.67,1961.04 539.539,1961.29 539.539,1961.63C539.539,1961.84 539.587,1962.01 539.683,1962.14C539.779,1962.28 539.915,1962.41 540.091,1962.52C540.267,1962.63 540.47,1962.73 540.699,1962.82C540.929,1962.91 541.182,1963.01 541.459,1963.1C542.035,1963.32 542.537,1963.53 542.963,1963.74C543.39,1963.94 543.745,1964.19 544.027,1964.46C544.31,1964.74 544.521,1965.07 544.659,1965.44C544.798,1965.81 544.867,1966.27 544.867,1966.8C544.867,1967.84 544.505,1968.64 543.779,1969.21C543.054,1969.78 541.961,1970.06 540.499,1970.06C540.009,1970.06 539.566,1970.04 539.171,1969.98C538.777,1969.92 538.427,1969.85 538.123,1969.76C537.819,1969.67 537.558,1969.58 537.339,1969.49C537.121,1969.39 536.937,1969.3 536.787,1969.22L537.491,1967.23C537.822,1967.41 538.23,1967.58 538.715,1967.72C539.201,1967.86 539.795,1967.94 540.499,1967.94Z" style="fill:rgb(67,67,59);fill-rule:nonzero;"/>
                    </g>
                </g>
            </g>
        </g>
    </g>
</svg>
