<?xml version="1.0" encoding="UTF-8" standalone="no"?>
<!DOCTYPE svg PUBLIC "-//W3C//DTD SVG 1.1//EN" "http://www.w3.org/Graphics/SVG/1.1/DTD/svg11.dtd">
<svg width="100%" height="100%" viewBox="0 0 56 56" version="1.1" xmlns="http://www.w3.org/2000/svg" xmlns:xlink="http://www.w3.org/1999/xlink" xml:space="preserve" xmlns:serif="http://www.serif.com/" style="fill-rule:evenodd;clip-rule:evenodd;stroke-linejoin:round;stroke-miterlimit:2;">
    <g id="Hover" transform="matrix(0.999738,0,0,0.999738,-5331.57,-6191.48)">
        <g transform="matrix(1.00026,0,0,1.00026,5339.97,6200.1)">
            <path d="M37.645,21.43L37.651,21.001C37.651,11.805 30.196,4.349 21,4.349C11.803,4.349 4.349,11.805 4.349,21.001C4.349,30.196 11.803,37.651 21,37.651C30.052,37.651 37.418,30.427 37.645,21.43Z" style="fill:rgb(123,180,205);fill-rule:nonzero;"/>
        </g>
        <g transform="matrix(1.00327,0,0,1.00327,-3183.84,-4960.25)">
            <path d="M8516.95,11124C8528.5,11124 8537.89,11133.3 8537.89,11144.9C8537.89,11156.4 8528.5,11165.8 8516.95,11165.8C8505.39,11165.8 8496.01,11156.4 8496.01,11144.9C8496.01,11133.3 8505.39,11124 8516.95,11124ZM8516.95,11125.7C8527.54,11125.7 8536.14,11134.3 8536.14,11144.9C8536.14,11155.5 8527.54,11164.1 8516.95,11164.1C8506.36,11164.1 8497.76,11155.5 8497.76,11144.9C8497.76,11134.3 8506.36,11125.7 8516.95,11125.7Z" style="fill:rgb(123,180,205);"/>
        </g>
    </g>
    <path id="Active" d="M27.878,8.75L27.874,7.074L55.891,7.001L56,48.926L27.983,48.999L27.978,47.25L28,47.25C38.625,47.25 47.251,38.625 47.251,28C47.251,17.375 38.625,8.75 28,8.75L27.878,8.75Z" style="fill:rgb(123,180,205);"/>
    <g id="Eye" transform="matrix(1,0,0,1,28.0023,36.345)">
        <path d="M0,-16.69C-5.35,-16.69 -10.201,-13.763 -13.781,-9.009C-14.073,-8.62 -14.073,-8.076 -13.781,-7.686C-10.201,-2.926 -5.35,0 0,0C5.35,0 10.201,-2.926 13.781,-7.68C14.073,-8.07 14.073,-8.614 13.781,-9.003C10.201,-13.763 5.35,-16.69 0,-16.69M0.384,-2.468C-3.167,-2.245 -6.1,-5.171 -5.877,-8.729C-5.693,-11.661 -3.316,-14.038 -0.384,-14.221C3.167,-14.445 6.1,-11.518 5.877,-7.961C5.687,-5.034 3.311,-2.657 0.384,-2.468M0.206,-5.183C-1.707,-5.063 -3.288,-6.638 -3.162,-8.551C-3.064,-10.132 -1.781,-11.409 -0.2,-11.512C1.713,-11.632 3.293,-10.057 3.167,-8.144C3.064,-6.558 1.781,-5.28 0.206,-5.183" style="fill:rgb(238,232,216);fill-rule:nonzero;"/>
    </g>
</svg>
